<?xml version="1.0" encoding="UTF-8"?>
<session version="1.0">
<refactoring accessors="true" comment="Delete 2 elements from project &apos;A0&apos;&#x0A;- Original project: &apos;A0&apos;&#x0A;- Original elements:&#x0A;     A0/src/a0.src.comp557.a0&#x0A;     a0.src.comp557.a0.A0App.java" description="Delete elements" element1="/src&lt;a0.src.comp557.a0" element2="/src&lt;a0.src.comp557" element3="/src&lt;a0.src" element4="/src&lt;a0" elements="4" flags="589830" id="org.eclipse.jdt.ui.delete" resources="0" stamp="1442377919012" subPackages="false" version="1.0"/>
</session>